general electorate	Male	Female	
Auckland Central	"30,480"	"29,724"	
Bay of Plenty	"31,164"	"33,729"	
Botany	"30,777"	"32,760"	
Coromandel	"32,181"	"33,684"	
East Coast	"46,074"	"48,798"	
East Coast Bays	"28,818"	"30,756"	
Epsom	"29,868"	"32,007"	
Hamilton East	"34,068"	"37,089"	
Hamilton West	"34,017"	"36,972"	
Helensville	"30,204"	"30,108"	
Hunua	"31,845"	"32,808"	
Hutt South	"33,540"	"35,577"	
Kelston	"30,507"	"32,592"	
Mana	"33,252"	"35,910"	
Mangere	"32,037"	"33,984"	
Manukau East	"31,686"	"33,243"	
Manurewa	"35,097"	"37,521"	
Maungakiekie	"32,568"	"35,016"	
Mt Albert	"31,056"	"32,550"	
Mt Roskill	"29,616"	"31,782"	
Napier	"33,792"	"36,879"	
New Lynn	"29,889"	"31,377"	
New Plymouth	"33,357"	"35,460"	
North Shore	"30,744"	"33,405"	
Northcote	"31,002"	"33,342"	
Northland	"41,076"	"42,492"	
Ohariu	"29,127"	"31,056"	
Otaki	"29,991"	"34,053"	
Pakuranga	"29,970"	"31,857"	
Palmerston North	"31,620"	"34,935"	
Papakura	"35,454"	"37,905"	
Rangitikei	"34,080"	"34,440"	
Rimutaka	"33,714"	"35,445"	
Rodney	"29,832"	"32,439"	
Rongotai	"30,624"	"32,835"	
Rotorua	"37,620"	"39,912"	
Tamaki	"28,371"	"31,479"	
Taranaki-King Country	"33,696"	"33,843"	
Taupo	"36,381"	"38,181"	
Tauranga	"30,153"	"33,714"	
Te Atatu	"32,679"	"35,211"	
Tukituki	"35,373"	"38,034"	
Upper Harbour	"32,493"	"33,669"	
Waikato	"36,594"	"37,236"	
Wairarapa	"32,655"	"34,350"	
Wellington Central	"30,597"	"32,346"	
Whanganui	"35,043"	"37,203"	
Whangarei	"35,028"	"38,121"	
Hauraki-Waikato	"45,006"	"49,530"	
Ikaroa-R_whiti	"40,374"	"44,925"	
T_maki Makaurau	"41,961"	"47,199"	
Te Tai Hau_uru	"47,061"	"50,727"	
Te Tai Tokerau	"46,026"	"50,244"	
Te Tai Tonga	"60,363"	"61,938"	
Waiariki	"39,663"	"43,698"	
Christchurch Central	"32,157"	"33,015"	
Christchurch East	"31,857"	"32,907"	
Clutha-Southland	"33,186"	"32,262"	
Dunedin North	"29,853"	"32,181"	
Dunedin South	"29,139"	"31,689"	
Ilam	"29,916"	"31,416"	
Invercargill	"31,299"	"32,673"	
Kaikoura	"30,987"	"32,034"	
Nelson	"30,531"	"32,823"	
Port Hills	"31,626"	"33,360"	
Rangitata	"31,434"	"32,466"	
Selwyn	"30,210"	"29,025"	
Waimakariri	"28,941"	"30,153"	
Waitaki	"32,019"	"32,652"	
West Coast-Tasman	"31,218"	"31,164"	
Wigram	"29,832"	"30,378"	