general electorate	Anglican	Baptist	Catholic	Christian nfd	Latter-day Saints	Methodist	Pentecostal	Presbyterian, Congregational and Reformed	Other Christian Religions	Ratana	Ringat_	Other M_ori Christian Religions	Buddhist	Hindu	Islam/Muslim	Judaism/ Jewish	Spiritualism and New Age Religions	Sikh	Other Religions	No Religion
Auckland Central	4,263	393	6,927	2,073	219	675	369	2,634	1,146	168	36	6	2,016	2,436	1,320	219	300	513	249	26,610
Bay of Plenty	7,950	1,188	6,288	3,909	345	1,194	945	4,719	1,317	1,497	288	3	354	342	123	90	297	600	222	27,375
Botany	4,557	1,236	7,863	3,891	663	2,016	1,989	4,845	1,815	225	18	3	2,883	4,143	1,929	78	132	981	402	19,395
Coromandel	8,649	1,014	5,838	3,048	252	1,554	771	5,370	1,365	723	222	3	573	489	117	60	441	372	240	27,990
East Coast	13,575	738	8,274	4,713	900	1,323	1,503	6,345	2,217	1,689	5,559	54	414	375	162	78	333	252	459	32,655
East Coast Bays	5,772	1,791	5,829	3,651	372	1,773	1,491	4,353	1,587	72	12	0	1,359	771	636	123	192	87	156	24,570
Epsom	9,318	582	7,356	2,931	123	792	597	4,002	1,164	69	27	0	2,235	2,088	765	306	201	156	225	24,078
Hamilton East	6,930	918	8,028	4,050	1,104	2,025	1,674	4,329	2,100	582	222	9	1,152	1,713	1,641	96	288	453	345	26,676
Hamilton West	6,123	762	7,620	3,525	3,372	1,746	1,623	3,849	1,734	705	189	3	975	2,061	813	63	336	621	327	27,645
Helensville	5,727	1,110	5,412	3,186	186	1,035	846	2,706	1,077	363	57	0	582	399	213	111	369	57	189	29,796
Hunua	7,011	1,032	6,513	3,216	450	1,833	1,050	4,914	1,167	480	60	3	903	1,668	423	51	261	567	207	26,796
Hutt South	7,440	1,053	10,428	3,441	384	1,197	1,338	4,305	1,554	444	237	12	879	2,361	450	120	327	111	183	27,090
Kelston	3,291	927	7,599	3,948	1,113	2,283	1,671	4,014	2,268	489	63	15	1,509	3,183	1,821	84	318	204	246	20,781
Mana	6,501	885	9,360	4,161	1,194	1,332	1,647	5,970	2,040	558	198	6	936	690	492	117	342	60	210	25,485
Mangere	2,433	441	8,943	4,821	3,420	6,453	2,607	7,395	3,006	999	180	15	753	3,315	3,081	39	126	447	309	8,403
Manukau East	2,244	525	7,794	4,320	2,460	4,398	2,538	5,493	2,175	924	153	12	1,599	7,245	2,925	45	108	2,616	240	9,090
Manurewa	3,558	735	9,090	4,350	2,448	3,561	2,865	5,265	2,565	1,677	273	9	1,779	5,427	1,761	30	180	1,884	312	14,559
Maungakiekie	4,644	639	9,771	3,735	1,518	3,342	1,620	4,041	2,088	636	120	9	1,995	3,084	1,329	183	228	321	315	20,382
Mt Albert	4,635	687	8,241	2,769	399	1,191	633	3,090	1,221	150	54	6	1,335	2,772	1,548	207	327	252	231	28,293
Mt Roskill	3,972	951	7,785	3,396	777	2,145	1,254	3,417	2,100	183	33	0	1,872	5,991	3,348	108	177	408	255	18,216
Napier	10,719	606	7,689	3,207	708	1,107	873	5,487	1,452	1,947	552	18	609	294	330	84	396	93	204	27,384
New Lynn	3,828	1,182	7,431	3,045	486	1,545	1,017	3,246	1,707	186	33	3	1,437	6,135	3,195	96	246	324	240	20,199
New Plymouth	8,694	843	9,465	3,111	219	2,055	969	4,767	1,287	318	63	9	453	480	282	57	345	87	234	27,990
North Shore	7,920	1,071	8,652	3,066	327	1,338	885	4,800	1,275	87	24	0	1,173	618	471	219	243	54	138	27,636
Northcote	5,391	1,050	8,886	3,375	510	1,626	1,251	3,501	1,761	222	39	0	1,518	1,269	840	150	309	129	261	26,625
Northland	11,616	714	7,320	4,737	1,467	2,373	990	3,390	2,637	3,423	108	63	456	318	135	102	405	39	372	29,343
Ohariu	6,567	690	8,865	2,862	180	957	984	3,312	2,094	144	66	6	1,185	1,941	729	183	207	102	168	24,918
Otaki	10,101	711	7,437	3,084	363	1,488	1,089	4,422	1,764	477	108	21	378	291	105	72	369	24	213	25,092
Pakuranga	6,213	1,233	6,447	4,029	249	1,650	1,458	4,566	1,638	186	12	0	2,031	1,896	978	111	210	366	546	23,814
Palmerston North	7,422	870	7,560	3,666	432	1,590	1,491	4,230	2,493	666	150	3	810	1,041	816	60	339	144	234	26,211
Papakura	6,189	774	8,274	3,840	1,419	2,199	1,821	5,472	1,911	1,356	213	15	993	2,760	789	72	249	1,875	267	24,627
Rangitikei	9,822	585	7,242	3,585	351	1,344	966	5,472	2,076	1,509	156	18	384	318	270	66	306	45	240	27,564
Rimutaka	6,999	894	10,713	3,705	612	1,599	1,683	4,791	1,755	675	201	6	837	1,020	456	90	354	114	201	25,416
Rodney	8,304	2,028	5,742	3,795	234	1,614	1,218	4,044	1,572	180	18	3	582	330	123	117	339	48	168	26,406
Rongotai	5,046	465	9,249	2,514	270	840	663	3,120	3,012	261	99	9	1,272	2,358	1,041	213	342	81	219	26,847
Rotorua	8,946	675	8,937	3,879	576	1,167	1,383	5,151	1,674	1,476	831	24	525	1,023	210	84	330	906	324	29,118
Tamaki	9,027	501	9,342	2,703	402	1,260	624	5,163	1,362	333	39	3	1,281	975	756	585	150	69	177	19,887
Taranaki-King Country	8,382	669	6,897	3,402	750	2,082	813	4,986	1,299	837	120	9	336	306	132	60	300	117	300	28,803
Taupo	9,648	855	7,722	3,666	570	1,497	909	5,655	2,139	2,220	264	21	456	414	129	54	321	159	270	29,934
Tauranga	7,449	1,593	5,910	4,047	345	1,389	1,401	5,259	1,626	819	243	9	507	591	228	84	285	855	162	25,404
Te Atatu	4,272	1,107	9,366	4,242	825	2,103	1,905	4,404	2,307	621	93	18	1,521	2,652	1,614	66	261	162	288	22,851
Tukituki	10,674	702	7,344	3,987	1,623	1,098	1,419	6,435	1,941	1,575	405	18	579	633	411	90	327	687	270	25,713
Upper Harbour	4,800	1,218	8,541	3,756	750	1,788	1,602	4,266	2,079	372	54	3	1,407	2,262	1,284	99	276	192	207	24,654
Waikato	8,871	1,122	7,074	3,666	717	2,169	888	5,403	1,638	672	171	3	432	495	126	87	279	369	495	30,930
Wairarapa	11,811	243	7,035	3,024	582	1,287	774	6,066	1,500	1,050	144	6	327	243	102	75	333	33	189	26,043
Wellington Central	5,949	516	7,338	2,337	135	534	552	2,610	1,272	120	57	3	1,338	1,542	747	354	363	108	225	31,044
Whanganui	8,607	801	10,572	3,228	300	1,803	984	5,496	1,647	1,452	153	30	288	408	210	75	315	63	234	27,408
Whangarei	8,691	921	6,735	4,179	1,134	1,638	1,386	4,161	1,905	1,548	90	33	504	429	144	81	342	36	336	29,082
Christchurch Central	7,530	813	8,454	2,856	204	1,197	1,038	4,092	1,521	240	51	0	780	990	585	81	396	252	198	27,474
Christchurch East	7,233	720	6,939	2,949	204	1,236	1,242	4,005	1,476	285	87	3	462	399	330	75	351	54	177	29,547
Clutha-Southland	4,980	348	7,434	2,610	96	639	522	12,546	993	195	72	0	483	390	156	90	177	54	141	27,459
Dunedin North	4,401	672	6,588	2,352	126	774	666	7,578	891	108	51	0	792	630	696	111	387	51	201	28,752
Dunedin South	4,317	768	6,495	2,307	177	837	582	10,410	1,014	81	54	6	417	216	171	63	282	18	141	27,564
Ilam	9,843	870	7,695	2,835	150	1,302	861	5,640	1,572	123	21	6	1,104	552	645	111	168	63	153	23,496
Invercargill	3,903	612	7,686	2,820	138	1,038	909	12,027	1,524	315	96	3	306	282	141	51	240	45	153	26,151
Kaikoura	10,617	567	6,534	2,850	165	1,317	762	5,241	1,419	285	42	3	411	264	99	45	225	66	159	25,929
Nelson	8,103	816	5,259	4,014	237	1,179	1,083	3,474	1,854	147	21	3	711	279	108	102	408	51	189	29,841
Port Hills	9,522	1,110	6,942	3,216	90	1,281	1,131	4,506	1,146	138	36	3	573	477	267	72	306	33	162	28,890
Rangitata	8,406	744	8,859	2,379	204	1,359	873	10,059	1,353	195	42	0	240	300	141	39	216	45	129	23,259
Selwyn	9,777	867	6,363	2,601	108	1,074	576	5,613	819	165	36	3	315	195	183	72	207	21	117	25,776
Waimakariri	9,360	1,239	6,357	2,694	96	1,530	756	4,887	1,530	198	24	3	282	144	159	45	216	27	117	25,128
Waitaki	7,083	489	7,308	2,733	168	840	702	11,682	927	114	21	0	354	201	120	84	228	18	150	25,959
West Coast-Tasman	7,908	312	6,816	3,339	96	891	450	3,573	1,719	174	45	3	459	213	93	75	381	57	168	28,692
Wigram	6,246	1,158	7,656	2,745	249	1,374	1,077	4,446	1,503	216	69	6	993	774	687	63	249	102	195	24,594
Hauraki-Waikato	8,097	672	7,935	4,884	4,812	3,051	1,620	2,805	1,632	4,392	1,038	36	246	114	129	72	507	9	1,107	45,789
Ikaroa-R_whiti	12,705	264	7,812	4,650	3,207	567	1,254	2,487	1,806	5,676	2,592	84	303	150	186	75	459	9	525	35,859
T_maki Makaurau	8,688	729	11,148	5,862	3,003	2,115	1,845	3,438	2,082	5,628	918	57	393	195	300	93	528	12	621	37,611
Te Tai Hau_uru	9,084	444	12,510	4,893	1,872	2,145	1,458	3,027	1,812	5,715	882	96	291	105	117	66	588	3	783	46,389
Te Tai Tokerau	11,208	792	10,587	5,859	3,342	2,016	1,524	2,307	1,989	6,567	432	114	336	138	135	78	492	0	630	41,886
Te Tai Tonga	11,028	717	12,333	5,970	1,323	1,257	1,641	5,853	1,899	3,243	915	48	567	150	177	114	771	9	651	66,951
Waiariki	9,156	441	9,375	4,329	1,332	672	1,545	3,162	1,686	5,934	5,463	69	210	78	75	60	336	12	627	34,458