general electorate	European	M_ori	Pacific Peoples	Asian	"Middle Eastern/ Latin American/
African"	New Zealander		
Auckland Central	"34,095"	"3,666"	"2,175"	"16,869"	"2,016"	612		
Bay of Plenty	"52,443"	"11,313"	"1,320"	"2,325"	330	"1,113"		
Botany	"27,828"	"3,615"	"7,476"	"24,246"	"1,644"	498		
Coromandel	"54,711"	"10,410"	"1,332"	"2,103"	219	"1,221"		
East Coast	"53,712"	"41,934"	"2,895"	"2,127"	261	"1,347"		
East Coast Bays	"41,415"	"2,235"	798	"13,581"	"1,107"	651		
Epsom	"38,868"	"2,538"	"1,602"	"17,718"	942	729		
Hamilton East	"46,839"	"12,315"	"3,207"	"10,008"	"1,719"	966		
Hamilton West	"46,929"	"16,320"	"3,606"	"8,526"	912	"1,122"		
Helensville	"50,382"	"5,295"	"1,587"	"2,922"	351	"1,077"		
Hunua	"48,579"	"7,788"	"2,610"	"7,377"	324	"1,011"		
Hutt South	"49,197"	"10,041"	"5,097"	"8,118"	588	"1,101"		
Kelston	"30,822"	"7,989"	"14,019"	"12,975"	"1,515"	582		
Mana	"45,285"	"12,240"	"13,530"	"4,368"	450	942		
Mangere	"12,018"	"9,786"	"36,312"	"10,170"	402	237		
Manukau East	"12,717"	"9,027"	"26,880"	"18,666"	684	264		
Manurewa	"20,433"	"16,680"	"24,156"	"15,375"	"1,407"	342		
Maungakiekie	"31,917"	"7,542"	"13,839"	"15,513"	"1,128"	696		
Mt Albert	"42,078"	"4,875"	"6,267"	"11,733"	"1,368"	687		
Mt Roskill	"25,827"	"3,483"	"8,718"	"22,836"	"1,770"	504		
Napier	"53,331"	"16,287"	"1,890"	"2,067"	300	"1,350"		
New Lynn	"29,154"	"4,320"	"7,119"	"21,159"	"1,293"	546		
New Plymouth	"56,271"	"10,833"	"1,221"	"2,817"	342	"1,266"		
North Shore	"47,613"	"3,195"	"1,269"	"11,700"	"1,068"	894		
Northcote	"41,001"	"5,283"	"3,708"	"14,751"	"1,404"	825		
Northland	"54,651"	"28,185"	"2,607"	"1,605"	264	"1,299"		
Ohariu	"43,602"	"4,422"	"2,469"	"10,662"	828	"1,155"		
Otaki	"52,320"	"10,425"	"2,259"	"2,127"	225	"1,278"		
Pakuranga	"37,614"	"3,435"	"2,400"	"18,807"	903	702		
Palmerston North	"49,089"	"10,731"	"3,042"	"6,462"	816	"1,251"		
Papakura	"41,835"	"16,410"	"10,278"	"9,984"	"1,116"	771		
Rangitikei	"54,726"	"14,196"	"1,593"	"2,019"	258	"1,521"		
Rimutaka	"48,903"	"11,163"	"7,020"	"5,058"	849	"1,098"		
Rodney	"54,588"	"4,401"	"1,434"	"2,379"	327	999		
Rongotai	"44,922"	"5,637"	"4,299"	"8,160"	"2,385"	999		
Rotorua	"48,717"	"24,987"	"3,375"	"4,974"	378	"1,200"		
Tamaki	"41,964"	"3,816"	"4,212"	"8,628"	"1,116"	750		
Taranaki-King Country	"53,247"	"14,016"	"1,224"	"1,449"	219	"1,335"		
Taupo	"55,788"	"17,580"	"3,507"	"2,244"	279	"1,176"		
Tauranga	"50,910"	"9,117"	"1,428"	"3,948"	444	"1,074"		
Te Atatu	"35,445"	"9,642"	"11,439"	"14,979"	"1,350"	615		
Tukituki	"51,819"	"16,890"	"4,158"	"2,937"	333	"1,245"		
Upper Harbour	"39,108"	"6,852"	"6,537"	"14,742"	"1,692"	792		
Waikato	"55,950"	"15,387"	"2,157"	"2,697"	261	"1,152"		
Wairarapa	"55,671"	"11,835"	"1,545"	"1,293"	144	"1,317"		
Wellington Central	"47,703"	"4,158"	"1,710"	"8,805"	"1,236"	"1,041"		
Whanganui	"56,556"	"15,213"	"1,515"	"1,833"	237	"1,269"		
Whangarei	"54,405"	"17,640"	"1,977"	"2,451"	306	"1,308"		
Christchurch Central	"51,351"	"5,637"	"1,992"	"5,790"	897	"1,152"		
Christchurch East	"52,848"	"7,278"	"2,517"	"2,784"	453	"1,314"		
Clutha-Southland	"54,987"	"5,352"	606	"2,847"	849	"1,257"		
Dunedin North	"50,211"	"4,515"	"1,461"	"5,196"	834	"1,248"		
Dunedin South	"53,346"	"4,548"	"1,380"	"1,929"	324	"1,272"		
Ilam	"48,147"	"3,237"	"1,179"	"8,664"	756	996		
Invercargill	"54,375"	"8,823"	"1,686"	"1,929"	177	"1,446"		
Kaikoura	"54,402"	"6,417"	"1,140"	"1,572"	342	"1,413"		
Nelson	"55,251"	"5,205"	972	"2,322"	243	"1,272"		
Port Hills	"56,274"	"4,341"	"1,458"	"3,018"	357	"1,218"		
Rangitata	"55,650"	"4,746"	"1,395"	"1,908"	393	"1,203"		
Selwyn	"52,323"	"4,191"	702	"1,872"	363	"1,212"		
Waimakariri	"52,860"	"4,179"	549	"1,791"	180	"1,152"		
Waitaki	"57,123"	"3,921"	861	"1,533"	279	"1,305"		
West Coast-Tasman	"54,093"	"5,571"	621	"1,191"	225	"1,569"		
Wigram	"43,143"	"5,496"	"2,616"	"9,081"	777	"1,005"		
Hauraki-Waikato	"50,199"	"79,611"	"6,984"	"1,509"	180	900		
Ikaroa-R_whiti	"40,179"	"75,030"	"5,028"	879	168	792		
T_maki Makaurau	"47,139"	"74,091"	"17,499"	"2,664"	378	618		
Te Tai Hau_uru	"29,124"	"49,296"	"2,310"	459	72	771		
Te Tai Tokerau	"55,314"	"79,788"	"7,713"	"1,521"	300	978		
Te Tai Tonga	"85,515"	"96,000"	"5,448"	"1,581"	315	"1,968"		
Waiariki	"38,049"	"73,191"	"3,984"	903	156	765		
								
								
								
								
								
								
								
								
								
								
								
								
								
								
								
								
								
								
								
								
								
								
								
								
								
								
								
								
								
								
								
								
								
								
								
								
								
								
								
								
								
								
								
								
								
								
								
								
								
								
								
								
								
								
								
								
								
								
								
								
								
								
								
								
								
								
								
								
								
								
								
								
								
								
								
								
								
								
								
								
								
								
								
								
								
								
								
								
								
								
								
								
								
								
								
								
								
								
								
								
								
								
								
								
								
								
								
								
								
								
								
								
								
								
								
								
								
								
								
								
								
								
								
								
								
								
								
								
								
								
								
								
								
								
								
								
								
								
								
								
								
								
								
								
								
								
								
								
								
								
								
								
								
								
								
								
								
								
								
								
								
								
								
								
								
								
								
								
								
								
								
								
								
								
								
								
								
								
								
								
								
								
								
								
								
								
								
								
								
								
								
								
								
								
								
								
								
								
								
								
								
								
								
								
								
								
								
								
								
								
								
								
								
								
								
								
								
								
								
								
								
								
								
								
								
								
								
								
								
								
								
								
								
								
								
								
								
								
								
								
								
								
								
								
								
								
								
								
								
								
								
								
								
								
								
								
								
								
								
								
								
								
								
								
								
								
								
								
								
								
								
								
								
								
								
								
								
								
								
								
								
								
								
								
								
								
								
								
								
								
								
								
								
								
								
								
								
								
								
								
								
								
								
								
								
								
								
								
								
								
								
								
								
								
								
								
								
								
								
								
								
								
								
								
								
								
								
								
								
								
								
								
								
								
								
								
								
								
								
								
								
								
								
								
								
								
								
								
								
								
								
								
								
								
								
								
								
								
								
								
								
								
								
								
								
								
								
								
								
								
								
								
								
								
								
								
								
								
								
								
								
								
								
								
								
								
								
								
								
								
								
								
								
								
								
								
								
								
								
								
								
								
								
								
								
								
								
								
								
								
								
								
								
								
								
								
								
								
								
								
								
								
								
								
								
								
								
								
								
								
								
								
								
								
								
								
								
								
								
								
								
								
								
								
								
								
								
								
								
								
								
								
								
								
								
								
								
								